com\sce\edu\iot\model\DeviceAttributes.class
com\sce\edu\iot\model\Reported.class
com\sce\edu\iot\model\Desired.class
com\sce\edu\iot\model\Delta.class
com\sce\edu\iot\model\DeviceMetadata.class
com\sce\edu\iot\model\Thing.class
